%YAML 1.1
%TAG !u! tag:unity3d.com,2011:
--- !u!221 &22100000
AnimatorOverrideController:
  m_ObjectHideFlags: 0
  m_CorrespondingSourceObject: {fileID: 0}
  m_PrefabInstance: {fileID: 0}
  m_PrefabAsset: {fileID: 0}
  m_Name: Fire
  m_Controller: {fileID: 9100000, guid: f3c8fada8302cb04eb2704bf14f37f28, type: 2}
  m_Clips:
  - m_OriginalClip: {fileID: 7400000, guid: 9e3088fea9508e141808299f82715316, type: 2}
    m_OverrideClip: {fileID: 7400000, guid: 5430e6bfe50d41949a44e2a851580870, type: 2}
